<svg width="16" height="20" viewBox="0 0 16 20" fill="none" xmlns="http://www.w3.org/2000/svg">
<path d="M8 0C4.66667 0 2 2.5 2 5.625V8.125C0.866667 8.125 0 8.9375 0 10V18.125C0 19.1875 0.866667 20 2 20H14C15.1333 20 16 19.1875 16 18.125V10C16 8.9375 15.1333 8.125 14 8.125V5.625C14 2.5 11.3333 0 8 0ZM14.6667 10V18.125C14.6667 18.5 14.4 18.75 14 18.75H2C1.6 18.75 1.33333 18.5 1.33333 18.125V10C1.33333 9.625 1.6 9.375 2 9.375H2.66667H13.3333H14C14.4 9.375 14.6667 9.625 14.6667 10ZM3.33333 8.125V5.625C3.33333 3.1875 5.4 1.25 8 1.25C10.6 1.25 12.6667 3.1875 12.6667 5.625V8.125H3.33333Z" fill="#BABABA"/>
<path d="M8 11.25C6.86667 11.25 6 12.0625 6 13.125C6 13.9375 6.53333 14.625 7.33333 14.875V16.25C7.33333 16.625 7.6 16.875 8 16.875C8.4 16.875 8.66667 16.625 8.66667 16.25V14.875C9.46667 14.625 10 13.9375 10 13.125C10 12.0625 9.13333 11.25 8 11.25ZM8 13.75C7.6 13.75 7.33333 13.5 7.33333 13.125C7.33333 12.75 7.6 12.5 8 12.5C8.4 12.5 8.66667 12.75 8.66667 13.125C8.66667 13.5 8.4 13.75 8 13.75Z" fill="#BABABA"/>
</svg>
